{
   "SITE_BASE_URL": "http://ec2-184-72-65-236.compute-1.amazonaws.com/gmail-integration/web",
   "GMAIL": {
	 "CLIENT_ID": "573148206673-s429ffe3gpaqbdl1tnunvnugp7sp6f2g.apps.googleusercontent.com",
	 "CLIENT_SECRET": "695j9vE6UbyrYBzii3t0toWo",
	 "APPLICATION_NAME": "GMail Integration",
	 "SCOPES": "https://mail.google.com/,https://www.googleapis.com/auth/gmail.modify,https://www.googleapis.com/auth/gmail.compose,https://www.googleapis.com/auth/gmail.labels,https://www.googleapis.com/auth/plus.login,https://www.googleapis.com/auth/plus.me,https://www.googleapis.com/auth/plus.profile.emails.read"
     },
   "EMAILER": {
	"PER_USER_TIMEOUT": 1,
	"PER_CYCLE_TIMEOUT": 1,
	"REPLY_TIME_ELAPSE": 86400
    }
}
